%YAML 1.1
%TAG !u! tag:unity3d.com,2011:
--- !u!1045 &1
EditorBuildSettings:
  m_ObjectHideFlags: 0
  serializedVersion: 2
  m_Scenes:
  - enabled: 1
    path: Assets/Scenes/Game Scenes/Startup Screen.unity
    guid: 59cf855f97a8a40ee84ced7c4b05809c
  - enabled: 1
    path: Assets/Scenes/Test Scenes/Sound&MusicTest.unity
    guid: 12704b7333b2b4914affa9f62106cb19
  - enabled: 1
    path: Assets/Scenes/Menu.unity
    guid: 24bd5599cd7bca945956363582141676
  - enabled: 0
    path: 
    guid: 015de612e3632ce4fbe92694823e3c88
  - enabled: 1
    path: Assets/Scenes/Game Scenes/LevelSelect.unity
    guid: ad0baed19dc9941e580c3ccfb653e3df
